\relax 
\providecommand\hyper@newdestlabel[2]{}
\abx@aux@refcontext{nty/global//global/global}
\providecommand\HyperFirstAtBeginDocument{\AtBeginDocument}
\HyperFirstAtBeginDocument{\ifx\hyper@anchor\@undefined
\global\let\oldcontentsline\contentsline
\gdef\contentsline#1#2#3#4{\oldcontentsline{#1}{#2}{#3}}
\global\let\oldnewlabel\newlabel
\gdef\newlabel#1#2{\newlabelxx{#1}#2}
\gdef\newlabelxx#1#2#3#4#5#6{\oldnewlabel{#1}{{#2}{#3}}}
\AtEndDocument{\ifx\hyper@anchor\@undefined
\let\contentsline\oldcontentsline
\let\newlabel\oldnewlabel
\fi}
\fi}
\global\let\hyper@last\relax 
\gdef\HyperFirstAtBeginDocument#1{#1}
\providecommand\HyField@AuxAddToFields[1]{}
\providecommand\HyField@AuxAddToCoFields[2]{}
\abx@aux@cite{luyster2012sleep}
\abx@aux@segm{0}{0}{luyster2012sleep}
\abx@aux@cite{10.1093/sleep/zsaa291}
\abx@aux@segm{0}{0}{10.1093/sleep/zsaa291}
\@writefile{toc}{\boolfalse {citerequest}\boolfalse {citetracker}\boolfalse {pagetracker}\boolfalse {backtracker}\relax }
\@writefile{lof}{\boolfalse {citerequest}\boolfalse {citetracker}\boolfalse {pagetracker}\boolfalse {backtracker}\relax }
\@writefile{lot}{\boolfalse {citerequest}\boolfalse {citetracker}\boolfalse {pagetracker}\boolfalse {backtracker}\relax }
\@writefile{toc}{\defcounter {refsection}{0}\relax }\@writefile{toc}{\contentsline {section}{\numberline {1}Project Links}{1}{section.1}}
\newlabel{sec:links}{{1}{1}{Project Links}{section.1}{}}
\@writefile{toc}{\defcounter {refsection}{0}\relax }\@writefile{toc}{\contentsline {section}{\numberline {2}Introduction}{1}{section.2}}
\newlabel{sec:intro}{{2}{1}{Introduction}{section.2}{}}
\@writefile{toc}{\defcounter {refsection}{0}\relax }\@writefile{toc}{\contentsline {subsection}{\numberline {2.1}Topic}{1}{subsection.2.1}}
\newlabel{sec:topic}{{2.1}{1}{Topic}{subsection.2.1}{}}
\@writefile{toc}{\defcounter {refsection}{0}\relax }\@writefile{toc}{\contentsline {subsection}{\numberline {2.2}Motivation}{1}{subsection.2.2}}
\newlabel{sec:motive}{{2.2}{1}{Motivation}{subsection.2.2}{}}
\abx@aux@page{1}{1}
\abx@aux@page{2}{1}
\abx@aux@cite{Edouard2021}
\abx@aux@segm{0}{0}{Edouard2021}
\abx@aux@cite{strathprints79694}
\abx@aux@segm{0}{0}{strathprints79694}
\@writefile{toc}{\defcounter {refsection}{0}\relax }\@writefile{toc}{\contentsline {section}{\numberline {3}Technical Approach}{2}{section.3}}
\newlabel{sec:technical}{{3}{2}{Technical Approach}{section.3}{}}
\@writefile{toc}{\defcounter {refsection}{0}\relax }\@writefile{toc}{\contentsline {subsection}{\numberline {3.1}Data}{2}{subsection.3.1}}
\newlabel{sec:data}{{3.1}{2}{Data}{subsection.3.1}{}}
\abx@aux@page{3}{2}
\abx@aux@page{4}{2}
\@writefile{toc}{\defcounter {refsection}{0}\relax }\@writefile{toc}{\contentsline {subsection}{\numberline {3.2}Alarm Clock}{2}{subsection.3.2}}
\newlabel{sec:alarm}{{3.2}{2}{Alarm Clock}{subsection.3.2}{}}
\@writefile{lof}{\defcounter {refsection}{0}\relax }\@writefile{lof}{\contentsline {figure}{\numberline {1}{\ignorespaces Finite State Diagram of the Alarm Clock.\relax }}{3}{figure.caption.1}}
\providecommand*\caption@xref[2]{\@setref\relax\@undefined{#1}}
\newlabel{fig:fsm}{{1}{3}{Finite State Diagram of the Alarm Clock.\relax }{figure.caption.1}{}}
\@writefile{toc}{\defcounter {refsection}{0}\relax }\@writefile{toc}{\contentsline {subsection}{\numberline {3.3}AI Model}{3}{subsection.3.3}}
\newlabel{sec:model}{{3.3}{3}{AI Model}{subsection.3.3}{}}
\@writefile{lof}{\defcounter {refsection}{0}\relax }\@writefile{lof}{\contentsline {figure}{\numberline {2}{\ignorespaces An example of how the data flows between memory model and predictor model. Squares are the data (probabilities) and circles are nodes. Red squares are old data, yellow is current data, and green is next data. Red circle is the input layer units, yellow is the hidden layer units, and green is the output layer units.\relax }}{4}{figure.caption.2}}
\newlabel{fig:model}{{2}{4}{An example of how the data flows between memory model and predictor model. Squares are the data (probabilities) and circles are nodes. Red squares are old data, yellow is current data, and green is next data. Red circle is the input layer units, yellow is the hidden layer units, and green is the output layer units.\relax }{figure.caption.2}{}}
\@writefile{toc}{\defcounter {refsection}{0}\relax }\@writefile{toc}{\contentsline {section}{\numberline {4}Implementation Details}{4}{section.4}}
\newlabel{sec:implementation}{{4}{4}{Implementation Details}{section.4}{}}
\abx@aux@cite{WithingReview}
\abx@aux@segm{0}{0}{WithingReview}
\abx@aux@segm{0}{0}{WithingReview}
\@writefile{toc}{\defcounter {refsection}{0}\relax }\@writefile{toc}{\contentsline {subsection}{\numberline {4.1}Sleep Data}{5}{subsection.4.1}}
\newlabel{sec:data-impl}{{4.1}{5}{Sleep Data}{subsection.4.1}{}}
\@writefile{lof}{\defcounter {refsection}{0}\relax }\@writefile{lof}{\contentsline {figure}{\numberline {3}{\ignorespaces A confusion matrix between Withing Sleep Analyzer and EEG device; provided by\nobreakspace  {}\cite {WithingReview}.\relax }}{5}{figure.caption.3}}
\newlabel{fig:matrix}{{3}{5}{A confusion matrix between Withing Sleep Analyzer and EEG device; provided by~\cite {WithingReview}.\relax }{figure.caption.3}{}}
\@writefile{toc}{\defcounter {refsection}{0}\relax }\@writefile{toc}{\contentsline {subsection}{\numberline {4.2}Alarm Clock Class}{6}{subsection.4.2}}
\newlabel{sec:alarm-impl}{{4.2}{6}{Alarm Clock Class}{subsection.4.2}{}}
\@writefile{toc}{\defcounter {refsection}{0}\relax }\@writefile{toc}{\contentsline {subsection}{\numberline {4.3}AI Models}{6}{subsection.4.3}}
\newlabel{sec:model-impl}{{4.3}{6}{AI Models}{subsection.4.3}{}}
\@writefile{toc}{\defcounter {refsection}{0}\relax }\@writefile{toc}{\contentsline {section}{\numberline {5}Results}{7}{section.5}}
\newlabel{sec:results}{{5}{7}{Results}{section.5}{}}
\@writefile{toc}{\defcounter {refsection}{0}\relax }\@writefile{toc}{\contentsline {subsection}{\numberline {5.1}Outcomes}{7}{subsection.5.1}}
\newlabel{sec:outcome}{{5.1}{7}{Outcomes}{subsection.5.1}{}}
\newlabel{fig:base}{{4a}{7}{Baseline model Log Loss over training iterations.\relax }{figure.caption.4}{}}
\newlabel{sub@fig:base}{{a}{7}{Baseline model Log Loss over training iterations.\relax }{figure.caption.4}{}}
\newlabel{fig:lstm}{{4b}{7}{LSTM model Log Loss over training iterations.\relax }{figure.caption.4}{}}
\newlabel{sub@fig:lstm}{{b}{7}{LSTM model Log Loss over training iterations.\relax }{figure.caption.4}{}}
\newlabel{fig:gru}{{4c}{7}{GRU model Log Loss over training iterations.\relax }{figure.caption.4}{}}
\newlabel{sub@fig:gru}{{c}{7}{GRU model Log Loss over training iterations.\relax }{figure.caption.4}{}}
\newlabel{fig:attn}{{4d}{7}{Attention model Log Loss over training iterations.\relax }{figure.caption.4}{}}
\newlabel{sub@fig:attn}{{d}{7}{Attention model Log Loss over training iterations.\relax }{figure.caption.4}{}}
\@writefile{lof}{\defcounter {refsection}{0}\relax }\@writefile{lof}{\contentsline {figure}{\numberline {4}{\ignorespaces Log Loss over training iterations for each of the 4 models trained. Note the exponential decay of each training data, likely due to the data pattern being very simple to learn.\relax }}{7}{figure.caption.4}}
\newlabel{fig:model-graphs}{{4}{7}{Log Loss over training iterations for each of the 4 models trained. Note the exponential decay of each training data, likely due to the data pattern being very simple to learn.\relax }{figure.caption.4}{}}
\@writefile{toc}{\defcounter {refsection}{0}\relax }\@writefile{toc}{\contentsline {subsection}{\numberline {5.2}Issues}{8}{subsection.5.2}}
\newlabel{sec:issue}{{5.2}{8}{Issues}{subsection.5.2}{}}
\@writefile{toc}{\defcounter {refsection}{0}\relax }\@writefile{toc}{\contentsline {subsection}{\numberline {5.3}Takeaways}{8}{subsection.5.3}}
\newlabel{sec:takeaway}{{5.3}{8}{Takeaways}{subsection.5.3}{}}
\abx@aux@refcontextdefaultsdone
\abx@aux@defaultrefcontext{0}{10.1093/sleep/zsaa291}{nty/global//global/global}
\abx@aux@defaultrefcontext{0}{Edouard2021}{nty/global//global/global}
\abx@aux@defaultrefcontext{0}{WithingReview}{nty/global//global/global}
\abx@aux@defaultrefcontext{0}{luyster2012sleep}{nty/global//global/global}
\abx@aux@defaultrefcontext{0}{strathprints79694}{nty/global//global/global}
\@writefile{toc}{\defcounter {refsection}{0}\relax }\@writefile{toc}{\contentsline {subsection}{\numberline {5.4}Future Work}{9}{subsection.5.4}}
\newlabel{sec:future}{{5.4}{9}{Future Work}{subsection.5.4}{}}
\abx@aux@page{7}{9}
\abx@aux@page{8}{9}
\abx@aux@page{9}{9}
\abx@aux@page{10}{9}
\abx@aux@page{11}{9}
