\relax 
\providecommand\hyper@newdestlabel[2]{}
\providecommand\HyperFirstAtBeginDocument{\AtBeginDocument}
\HyperFirstAtBeginDocument{\ifx\hyper@anchor\@undefined
\global\let\oldcontentsline\contentsline
\gdef\contentsline#1#2#3#4{\oldcontentsline{#1}{#2}{#3}}
\global\let\oldnewlabel\newlabel
\gdef\newlabel#1#2{\newlabelxx{#1}#2}
\gdef\newlabelxx#1#2#3#4#5#6{\oldnewlabel{#1}{{#2}{#3}}}
\AtEndDocument{\ifx\hyper@anchor\@undefined
\let\contentsline\oldcontentsline
\let\newlabel\oldnewlabel
\fi}
\fi}
\global\let\hyper@last\relax 
\gdef\HyperFirstAtBeginDocument#1{#1}
\providecommand\HyField@AuxAddToFields[1]{}
\providecommand\HyField@AuxAddToCoFields[2]{}
\@writefile{toc}{\contentsline {section}{\numberline {1}Project Topic}{1}{section.1}}
\newlabel{sec:topic}{{1}{1}{Project Topic}{section.1}{}}
\@writefile{toc}{\contentsline {section}{\numberline {2}Motivation}{1}{section.2}}
\newlabel{sec:motive}{{2}{1}{Motivation}{section.2}{}}
\@writefile{toc}{\contentsline {section}{\numberline {3}Timeline}{1}{section.3}}
\newlabel{sec:timeline}{{3}{1}{Timeline}{section.3}{}}
\@writefile{toc}{\contentsline {section}{\numberline {4}Currently Defined Tools}{2}{section.4}}
\newlabel{sec:tools}{{4}{2}{Currently Defined Tools}{section.4}{}}
